{
    "app-id": "org.gnome.Gresg",
    "runtime": "org.gnome.Sdk",
    "runtime-version": "master",
    "sdk": "org.gnome.Sdk",
    "command": "gresg",
    "finish-args": [
        "--share=network",
        "--share=ipc",
        "--socket=x11",
        "--socket=wayland",
        "--filesystem=xdg-run/dconf",
        "--filesystem=~/.config/dconf:ro",
        "--talk-name=ca.desrt.dconf",
        "--env=DCONF_USER_CONFIG_DIR=.config/dconf"
    ],
    "build-options" : {
        "cflags": "-O2 -g",
        "cxxflags": "-O2 -g",
        "env": {
            "V": "1"
        }
    },
    "cleanup": ["/include", "/lib/pkgconfig",
                "/share/pkgconfig", "/share/aclocal",
                "/man", "/share/man", "/share/gtk-doc",
                "/share/vala",
                "*.la", "*.a"],
    "cleanup": [
        "/include",
        "/lib/pkgconfig",
        "/man",
        "/share/aclocal",
        "/share/doc",
        "/share/gtk-doc",
        "/share/man",
        "/share/pkgconfig",
        "/share/vala",
        "*.la",
        "*.a"
    ],
    "modules": [
        {
            "name": "gee",
            "config-opts": ["--disable-introspection"],
            "sources": [
                    {
                        "type": "git",
                        "path": "../libgee",
                        "brach": "0.20.0"
                    }
            ]
        },
        {
            "name": "gxml",
            "config-opts": ["--disable-introspection"],
            "sources": [
                    {
                        "type": "git",
                        "path": "../gxml",
                        "brach": "master"
                    }
            ]
        },
        {
            "name": "gresg",
            "sources": [
                    {
                        "type": "git",
                        "url": "file:///home/despinosa/Proyectos/gresg"
                    }
            ]
        }
    ]
}
